{
  "prepare_queue": {
    "installed": [],
    "uninstalled": []
  },
  "config_munge": {
    "files": {
      "config.xml": {
        "parents": {
          "/*": [
            {
              "xml": "<feature name=\"ActionSheet\"><param name=\"ios-package\" value=\"ActionSheet\" /></feature>",
              "count": 1
            },
            {
              "xml": "<feature name=\"Device\"><param name=\"ios-package\" value=\"CDVDevice\" /></feature>",
              "count": 1
            },
            {
              "xml": "<feature name=\"Notification\"><param name=\"ios-package\" value=\"CDVNotification\" /></feature>",
              "count": 1
            },
            {
              "xml": "<feature name=\"SitewaertsDocumentViewer\"><param name=\"ios-package\" value=\"SitewaertsDocumentViewer\" /></feature>",
              "count": 1
            },
            {
              "xml": "<feature name=\"Keyboard\"><param name=\"ios-package\" onload=\"true\" value=\"CDVIonicKeyboard\" /></feature>",
              "count": 1
            },
            {
              "xml": "<allow-navigation href=\"http://localhost:8080/*\" />",
              "count": 1
            },
            {
              "xml": "<feature name=\"CDVWKWebViewEngine\"><param name=\"ios-package\" value=\"CDVWKWebViewEngine\" /></feature>",
              "count": 1
            },
            {
              "xml": "<preference name=\"CordovaWebViewEngine\" value=\"CDVWKWebViewEngine\" />",
              "count": 1
            },
            {
              "xml": "<feature name=\"SplashScreen\"><param name=\"ios-package\" value=\"CDVSplashScreen\" /><param name=\"onload\" value=\"true\" /></feature>",
              "count": 1
            },
            {
              "xml": "<feature name=\"LaunchNavigator\"><param name=\"ios-package\" value=\"LaunchNavigator\" /></feature>",
              "count": 1
            },
            {
              "xml": "<feature name=\"CallNumber\"><param name=\"ios-package\" value=\"CFCallNumber\" /></feature>",
              "count": 1
            }
          ]
        }
      },
      "*-Info.plist": {
        "parents": {
          "LSApplicationQueriesSchemes": [
            {
              "xml": "<array><string>citymapper</string><string>comgooglemaps</string><string>navigon</string><string>transit</string><string>waze</string><string>yandexnavi</string><string>uber</string><string>tomtomhome</string><string>com.sygic.aura</string><string>here-route</string><string>moovit</string><string>lyft</string><string>mapsme</string><string>cabify</string><string>baidumap</string></array>",
              "count": 1
            }
          ],
          "NSLocationWhenInUseUsageDescription": [
            {
              "xml": "<string>This app requires access to your location for navigation purposes</string>",
              "count": 1
            }
          ]
        }
      }
    }
  },
  "installed_plugins": {
    "cordova-plugin-actionsheet": {
      "PACKAGE_NAME": "io.ionic.starter"
    },
    "cordova-plugin-device": {
      "PACKAGE_NAME": "io.ionic.starter"
    },
    "cordova-plugin-dialogs": {
      "PACKAGE_NAME": "io.ionic.starter"
    },
    "cordova-plugin-document-viewer": {
      "PACKAGE_NAME": "io.ionic.starter"
    },
    "cordova-plugin-ionic-keyboard": {
      "PACKAGE_NAME": "io.ionic.starter"
    },
    "cordova-plugin-ionic-webview": {
      "PACKAGE_NAME": "io.ionic.starter"
    },
    "cordova-plugin-splashscreen": {
      "PACKAGE_NAME": "io.ionic.starter"
    },
    "cordova-plugin-whitelist": {
      "PACKAGE_NAME": "io.ionic.starter"
    },
    "uk.co.workingedge.phonegap.plugin.launchnavigator": {
      "LOCATION_USAGE_DESCRIPTION": "This app requires access to your location for navigation purposes",
      "PACKAGE_NAME": "io.ionic.starter"
    },
    "mx.ferreyra.callnumber": {
      "PACKAGE_NAME": "io.ionic.starter"
    }
  },
  "dependent_plugins": {},
  "modules": [
    {
      "id": "cordova-plugin-actionsheet.ActionSheet",
      "file": "plugins/cordova-plugin-actionsheet/www/ActionSheet.js",
      "pluginId": "cordova-plugin-actionsheet",
      "clobbers": [
        "window.plugins.actionsheet"
      ]
    },
    {
      "id": "cordova-plugin-device.device",
      "file": "plugins/cordova-plugin-device/www/device.js",
      "pluginId": "cordova-plugin-device",
      "clobbers": [
        "device"
      ]
    },
    {
      "id": "cordova-plugin-dialogs.notification",
      "file": "plugins/cordova-plugin-dialogs/www/notification.js",
      "pluginId": "cordova-plugin-dialogs",
      "merges": [
        "navigator.notification"
      ]
    },
    {
      "id": "cordova-plugin-document-viewer.SitewaertsDocumentViewer",
      "file": "plugins/cordova-plugin-document-viewer/www/sitewaertsdocumentviewer.js",
      "pluginId": "cordova-plugin-document-viewer",
      "clobbers": [
        "cordova.plugins.SitewaertsDocumentViewer",
        "SitewaertsDocumentViewer"
      ]
    },
    {
      "id": "cordova-plugin-ionic-keyboard.keyboard",
      "file": "plugins/cordova-plugin-ionic-keyboard/www/ios/keyboard.js",
      "pluginId": "cordova-plugin-ionic-keyboard",
      "clobbers": [
        "window.Keyboard"
      ]
    },
    {
      "id": "cordova-plugin-ionic-webview.ios-wkwebview-exec",
      "file": "plugins/cordova-plugin-ionic-webview/src/www/ios/ios-wkwebview-exec.js",
      "pluginId": "cordova-plugin-ionic-webview",
      "clobbers": [
        "cordova.exec"
      ]
    },
    {
      "id": "cordova-plugin-splashscreen.SplashScreen",
      "file": "plugins/cordova-plugin-splashscreen/www/splashscreen.js",
      "pluginId": "cordova-plugin-splashscreen",
      "clobbers": [
        "navigator.splashscreen"
      ]
    },
    {
      "id": "uk.co.workingedge.phonegap.plugin.launchnavigator.Common",
      "file": "plugins/uk.co.workingedge.phonegap.plugin.launchnavigator/www/common.js",
      "pluginId": "uk.co.workingedge.phonegap.plugin.launchnavigator",
      "clobbers": [
        "launchnavigator"
      ]
    },
    {
      "id": "uk.co.workingedge.phonegap.plugin.launchnavigator.LocalForage",
      "file": "plugins/uk.co.workingedge.phonegap.plugin.launchnavigator/www/localforage.v1.5.0.min.js",
      "pluginId": "uk.co.workingedge.phonegap.plugin.launchnavigator",
      "clobbers": [
        "localforage"
      ]
    },
    {
      "id": "uk.co.workingedge.phonegap.plugin.launchnavigator.LaunchNavigator",
      "file": "plugins/uk.co.workingedge.phonegap.plugin.launchnavigator/www/ios/launchnavigator.js",
      "pluginId": "uk.co.workingedge.phonegap.plugin.launchnavigator",
      "merges": [
        "launchnavigator"
      ]
    },
    {
      "id": "mx.ferreyra.callnumber.CallNumber",
      "file": "plugins/mx.ferreyra.callnumber/www/CallNumber.js",
      "pluginId": "mx.ferreyra.callnumber",
      "clobbers": [
        "call"
      ]
    }
  ],
  "plugin_metadata": {
    "cordova-plugin-actionsheet": "2.3.3",
    "cordova-plugin-device": "2.0.1",
    "cordova-plugin-dialogs": "2.0.1",
    "cordova-plugin-document-viewer": "0.9.7",
    "cordova-plugin-ionic-keyboard": "2.0.5",
    "cordova-plugin-ionic-webview": "1.1.16",
    "cordova-plugin-splashscreen": "5.0.2",
    "cordova-plugin-whitelist": "1.3.3",
    "uk.co.workingedge.phonegap.plugin.launchnavigator": "4.1.3",
    "mx.ferreyra.callnumber": "0.0.2"
  }
}